[
{
  "model": "ddpublications.publication",
  "pk": 1,
  "fields": {
    "uuid": "a2a23fcb-5634-424e-aa9e-6aed4f183cd0",
    "title": "Transparency and quality assessment of research data in post-Soviet area studies: The potential of an interactive online platform",
    "authors_text": "",
    "places_text": "",
    "publisher_text": "",
    "included_text": "",
    "year": "w.d.",
    "url": "https://journals.sagepub.com/doi/full/10.1177/1879366519850698",
    "isbn": "",
    "doi": "https://doi.org/10.1177%2F1879366519850698",
    "pages": "",
    "description": ""
  }
},
{
  "model": "ddpublications.publication",
  "pk": 2,
  "fields": {
    "uuid": "a2a23fcb-5634-424e-aa9e-6aed4f183cd0",
    "title": "A Critical Reflection on the Validity of Political Regime-Related Country Rankings, in: Caucasus Analytical Digest",
    "authors_text": "",
    "places_text": "",
    "publisher_text": "",
    "included_text": "",
    "year": "2018",
    "url": "",
    "isbn": "",
    "doi": "",
    "pages": "2-19",
    "description": ""
  }
},
{
  "model": "ddpublications.publication",
  "pk": 3,
  "fields": {
    "uuid": "a2a23fcb-5634-424e-aa9e-6aed4f183cd0",
    "title": "Russia in political and economic country ratings, special issue, in: Russian Analytical Digest",
    "authors_text": "",
    "places_text": "",
    "publisher_text": "",
    "included_text": "",
    "year": "2007",
    "url": "https://css.ethz.ch/content/dam/ethz/special-interest/gess/cis/center-for-securities-studies/pdfs/RAD-21.pdf",
    "isbn": "",
    "doi": "",
    "pages": "2-34",
    "description": ""
  }
},
{
  "model": "ddpublications.publication",
  "pk": 4,
  "fields": {
    "uuid": "a2a23fcb-5634-424e-aa9e-6aed4f183cd0",
    "title": "Bildungskorruption in Russland und der Ukraine. Eine komparative Analyse der Performanz staatlicher Antikorruptionsma\u00dfnahmen im Hochschulsektor am Beispiel universit\u00e4rer Aufnahmepr\u00fcfungen",
    "authors_text": "",
    "places_text": "",
    "publisher_text": "",
    "included_text": "",
    "year": "2017",
    "url": "",
    "isbn": "978-3-8382-0995-1",
    "doi": "",
    "pages": "506",
    "description": ""
  }
},
{
  "model": "ddpublications.publication",
  "pk": 5,
  "fields": {
    "uuid": "a2a23fcb-5634-424e-aa9e-6aed4f183cd0",
    "title": "Post-Soviet anti-corruption reforms in higher education: Explaining the success of external independent testing in Ukraine",
    "authors_text": "",
    "places_text": "",
    "publisher_text": "",
    "included_text": "",
    "year": "2014",
    "url": "https://www.emecon.eu/index.php/emecon/article/view/30/23",
    "isbn": "",
    "doi": "",
    "pages": "28",
    "description": ""
  }
},
{
  "model": "ddpublications.publication",
  "pk": 7,
  "fields": {
    "uuid": "0a82fadf-44ec-484b-8991-09c94ac693d8",
    "title": "Transparency and quality assessment of research data in post-Soviet area studies: The potential of an interactive online platform",
    "authors_text": "Andreas Heinrich, Felix Herrmann, Heiko Pleines",
    "places_text": "",
    "publisher_text": "",
    "included_text": "Journal of Eurasian Studies, Volume 10, Issue 2",
    "year": "2019",
    "url": "https://journals.sagepub.com/doi/full/10.1177/1879366519850698",
    "isbn": "",
    "doi": "10.1177/1879366519850698",
    "pages": "136-146",
    "description": ""
  }
},
{
  "model": "ddpublications.publication",
  "pk": 8,
  "fields": {
    "uuid": "a0de7947-4d69-41f3-9ace-fd486185654b",
    "title": "NAME",
    "authors_text": "ROSS",
    "places_text": "",
    "publisher_text": "",
    "included_text": "123",
    "year": "2019",
    "url": "https://discuss-data.net/#team",
    "isbn": "",
    "doi": "",
    "pages": "",
    "description": "123"
  }
},
{
  "model": "ddpublications.publication",
  "pk": 10,
  "fields": {
    "uuid": "5ccb284b-fda9-44a3-951c-51259dfd2976",
    "title": "Transparency and quality assessment of research data in post-Soviet area studies: The potential of an interactive online platform",
    "authors_text": "Andreas Heinrich, Felix Herrmann, Heiko Pleines",
    "places_text": "",
    "publisher_text": "",
    "included_text": "",
    "year": "2019",
    "url": "",
    "isbn": "",
    "doi": "",
    "pages": "",
    "description": ""
  }
},
{
  "model": "ddpublications.publication",
  "pk": 11,
  "fields": {
    "uuid": "d8becefa-2a77-4496-b750-6aa663fea655",
    "title": "Transparency and quality assessment of research data in post-Soviet area studies: The potential of an interactive online platform",
    "authors_text": "Andreas Heinrich, Felix Herrmann, Heiko Pleines",
    "places_text": "",
    "publisher_text": "",
    "included_text": "",
    "year": "2019",
    "url": "",
    "isbn": "",
    "doi": "",
    "pages": "",
    "description": ""
  }
},
{
  "model": "ddpublications.publication",
  "pk": 12,
  "fields": {
    "uuid": "c2631515-8e0e-40d5-9b1a-2c835d9dc7eb",
    "title": "Pub2",
    "authors_text": "Felix",
    "places_text": "",
    "publisher_text": "",
    "included_text": "",
    "year": "2020",
    "url": "",
    "isbn": "",
    "doi": "",
    "pages": "",
    "description": ""
  }
},
{
  "model": "ddpublications.publication",
  "pk": 13,
  "fields": {
    "uuid": "4758da88-c87a-4049-af06-32648d5ba200",
    "title": "Transparency and quality assessment of research data in post-Soviet area studies: The potential of an interactive online platform",
    "authors_text": "Andreas Heinrich, Felix Herrmann, Heiko Pleines",
    "places_text": "",
    "publisher_text": "",
    "included_text": "Journal of Eurasian Studies, Vol 10, Issue 2, 2019",
    "year": "2019",
    "url": "https://journals.sagepub.com/doi/full/10.1177/1879366519850698",
    "isbn": "",
    "doi": "10.1177/1879366519850698",
    "pages": "136-146",
    "description": ""
  }
},
{
  "model": "ddpublications.publication",
  "pk": 14,
  "fields": {
    "uuid": "4d6df9aa-964a-44a6-85e1-aee2b3a69abd",
    "title": "test3",
    "authors_text": "Felix",
    "places_text": "",
    "publisher_text": "",
    "included_text": "",
    "year": "2019",
    "url": "http://www.heise.de",
    "isbn": "",
    "doi": "",
    "pages": "",
    "description": ""
  }
},
{
  "model": "ddpublications.publication",
  "pk": 15,
  "fields": {
    "uuid": "d4b1756a-df9e-4568-ad7d-dd78e7c12681",
    "title": "test2",
    "authors_text": "fx",
    "places_text": "",
    "publisher_text": "",
    "included_text": "",
    "year": "1980",
    "url": "",
    "isbn": "",
    "doi": "",
    "pages": "",
    "description": ""
  }
},
{
  "model": "ddpublications.publication",
  "pk": 19,
  "fields": {
    "uuid": "1fe0c7e7-cb0a-4c6b-8ce0-06155feb1e73",
    "title": "Transparency and quality assessment of research data in post-Soviet area studies: The potential of an interactive online platform",
    "authors_text": "Andreas Heinrich, Felix Herrmann, Heiko Pleines",
    "places_text": "",
    "publisher_text": "",
    "included_text": "",
    "year": "2019",
    "url": "https://journals.sagepub.com/doi/full/10.1177/1879366519850698",
    "isbn": "",
    "doi": "",
    "pages": "",
    "description": ""
  }
},
{
  "model": "ddpublications.publication",
  "pk": 21,
  "fields": {
    "uuid": "ce813a79-8636-44a2-a7f5-daec5f46afaa",
    "title": "Transparency and quality assessment of research data in post-Soviet area studies: The potential of an interactive online platform",
    "authors_text": "Andreas Heinrich,  Felix Herrmann, Heiko Pleines",
    "places_text": "",
    "publisher_text": "",
    "included_text": "",
    "year": "2019",
    "url": "https://journals.sagepub.com/doi/full/10.1177/1879366519850698",
    "isbn": "",
    "doi": "",
    "pages": "",
    "description": ""
  }
}
]
